Final Project
…
tic()
lasso_res <- tune_grid(
  lasso_wf,
  resamples = folds,
  grid = lasso_grid,
  metrics = metric_set(rmse, rsq)
)
toc()

10.104 sec elapsed

collect_metrics(lasso_res)

# A tibble: 40 × 7
    penalty .metric .estimator    mean     n  std_err .config              
      <dbl> <chr>   <chr>        <dbl> <int>    <dbl> <chr>                
 1 1   e-10 rmse    standard   726.        5 14.2     Preprocessor1_Model01
 2 1   e-10 rsq     standard     0.574     5  0.00536 Preprocessor1_Model01
 3 3.36e-10 rmse    standard   726.        5 14.2     Preprocessor1_Model02
 4 3.36e-10 rsq     standard     0.574     5  0.00536 Preprocessor1_Model02
 5 1.13e- 9 rmse    standard   726.        5 14.2     Preprocessor1_Model03
 6 1.13e- 9 rsq     standard     0.574     5  0.00536 Preprocessor1_Model03
 7 3.79e- 9 rmse    standard   726.        5 14.2     Preprocessor1_Model04
 8 3.79e- 9 rsq     standard     0.574     5  0.00536 Preprocessor1_Model04
 9 1.27e- 8 rmse    standard   726.        5 14.2     Preprocessor1_Model05
10 1.27e- 8 rsq     standard     0.574     5  0.00536 Preprocessor1_Model05
# ℹ 30 more rows
…
4878.484 sec elapsed

collect_metrics(rf_res)

# A tibble: 40 × 8
    mtry min_n .metric .estimator    mean     n  std_err .config              
   <int> <int> <chr>   <chr>        <dbl> <int>    <dbl> <chr>                
 1    27     2 rmse    standard   778.        5 19.8     Preprocessor1_Model01
 2    27     2 rsq     standard     0.526     5  0.00545 Preprocessor1_Model01
 3    25     4 rmse    standard   778.        5 19.7     Preprocessor1_Model02
 4    25     4 rsq     standard     0.529     5  0.00752 Preprocessor1_Model02
 5    10     2 rmse    standard   804.        5 22.7     Preprocessor1_Model03
 6    10     2 rsq     standard     0.508     5  0.00826 Preprocessor1_Model03
 7    23    13 rmse    standard   780.        5 20.8     Preprocessor1_Model04
 8    23    13 rsq     standard     0.526     5  0.00635 Preprocessor1_Model04
 9    20     4 rmse    standard   784.        5 20.7     Preprocessor1_Model05
10    20     4 rsq     standard     0.523     5  0.00643 Preprocessor1_Model05
# ℹ 30 more rows
…
